INSERT INTO `users` (`id`, `name`, `email`, `password`) VALUES (NULL, 'John', 'john@hoki.com', '123123'), (NULL, 'Dani', 'Dani@hoki.com', '230400');
INSERT INTO `items` (`id`, `name`, `description`, `price`, `stock`, `category_id`) VALUES (NULL, 'Uniklooh', 'baju keren dari brand ternama', '500000', '50', '2'), (NULL, 'sumsang', 'hape keren dari merek sumsang', '4000000', '100', '1'), (NULL, 'IMHO Watch', 'jam tangan anak yang jujur banget', '2000000', '10', '1');
INSERT INTO `categories` (`id`, `name`) VALUES (NULL, 'gadget\r\n\r\n '), (NULL, 'cloth\r\n\r\n \r\n\r\n '), (NULL, 'men\r\n\r\n \r\n\r\n '), (NULL, 'women\r\n\r\n '), (NULL, 'branded\r\n ');


4.
a.	SELECT id, name, email from users; 
B.	SELECT * from items WHERE nilai > 1000000
	SELECT * from items WHERE name LIKE “sang%”;
	SELECT * from items WHERE description LIKE “%keren%”;
	SELECT items.id, items.name, items.description, items.category_id, items.price

5.UPDATE items set price = 2500000 where id =3;
